------------------------------------------------------------------------------------------------------------------------

[2020-04-30 23:01:27 #1 store] 
Database '/Users/ldeniz/git/Bets/resources/bets.temp' is opened by 23619@MacBook-Pro-de-Leroy.local

[2020-04-30 23:01:27 #2 type.registry] 
New type domain.Deporte

[2020-04-30 23:01:27 #3 type] 
Type domain.Deporte is not enhanced.

[2020-04-30 23:01:27 #4 type.registry] 
New type domain.Event

[2020-04-30 23:01:27 #5 type.registry] 
New type java.util.Vector<domain.Event>

[2020-04-30 23:01:27 #6 type] 
Type domain.Event is not enhanced.

[2020-04-30 23:01:27 #7 type.registry] 
New type domain.Question

[2020-04-30 23:01:27 #8 type.registry] 
New type java.util.Vector<domain.Question>

[2020-04-30 23:01:27 #9 type] 
Type domain.Question is not enhanced.

[2020-04-30 23:01:27 #10 type.registry] 
New type domain.Answer

[2020-04-30 23:01:27 #11 type.registry] 
New type java.util.Vector<domain.Answer>

[2020-04-30 23:01:27 #12 type] 
Type domain.Answer is not enhanced.

[2020-04-30 23:01:27 #13 type.registry] 
New type domain.ApuestaGlobal

[2020-04-30 23:01:27 #14 type.registry] 
New type domain.Apuesta

[2020-04-30 23:01:27 #15 type.registry] 
New type java.util.Vector<domain.Apuesta>

[2020-04-30 23:01:27 #16 type] 
Type domain.ApuestaGlobal is not enhanced.

[2020-04-30 23:01:27 #17 type.registry] 
New type domain.Usuario

[2020-04-30 23:01:27 #18 type.registry] 
New type domain.Cliente

[2020-04-30 23:01:27 #19 type] 
Type domain.Apuesta is not enhanced.

[2020-04-30 23:01:27 #20 type] 
Type domain.Usuario is not enhanced.

[2020-04-30 23:01:27 #21 type] 
Type domain.Cliente is not enhanced.

[2020-04-30 23:01:27 #22 type.registry] 
New type domain.Admin

[2020-04-30 23:01:27 #23 type] 
Type domain.Admin is not enhanced.

[2020-04-30 23:01:27 #24 type.registry] 
New type domain.CuentaGlobal

[2020-04-30 23:01:27 #25 type] 
Type domain.CuentaGlobal is not enhanced.

[2020-04-30 23:01:27 #26 type.registry] 
New type java.util.Vector<java.lang.Object>

------------------------------------------------------------------------------------------------------------------------

[2020-04-30 23:01:41 #1 store] 
Database '/Users/ldeniz/git/Bets/resources/bets.temp' is opened by 23623@MacBook-Pro-de-Leroy.local

[2020-04-30 23:01:41 #2 type.registry] 
New type domain.Deporte

[2020-04-30 23:01:41 #3 type] 
Type domain.Deporte is not enhanced.

[2020-04-30 23:01:41 #4 type.registry] 
New type domain.Event

[2020-04-30 23:01:41 #5 type.registry] 
New type java.util.Vector<domain.Event>

[2020-04-30 23:01:41 #6 type] 
Type domain.Event is not enhanced.

[2020-04-30 23:01:41 #7 type.registry] 
New type domain.Question

[2020-04-30 23:01:41 #8 type.registry] 
New type java.util.Vector<domain.Question>

[2020-04-30 23:01:41 #9 type] 
Type domain.Question is not enhanced.

[2020-04-30 23:01:41 #10 type.registry] 
New type domain.Answer

[2020-04-30 23:01:41 #11 type.registry] 
New type java.util.Vector<domain.Answer>

[2020-04-30 23:01:41 #12 type] 
Type domain.Answer is not enhanced.

[2020-04-30 23:01:41 #13 type.registry] 
New type domain.ApuestaGlobal

[2020-04-30 23:01:41 #14 type.registry] 
New type domain.Apuesta

[2020-04-30 23:01:41 #15 type.registry] 
New type java.util.Vector<domain.Apuesta>

[2020-04-30 23:01:41 #16 type] 
Type domain.ApuestaGlobal is not enhanced.

[2020-04-30 23:01:41 #17 type.registry] 
New type domain.Usuario

[2020-04-30 23:01:41 #18 type.registry] 
New type domain.Cliente

[2020-04-30 23:01:41 #19 type] 
Type domain.Apuesta is not enhanced.

[2020-04-30 23:01:41 #20 type] 
Type domain.Usuario is not enhanced.

[2020-04-30 23:01:41 #21 type] 
Type domain.Cliente is not enhanced.

[2020-04-30 23:01:41 #22 type.registry] 
New type domain.Admin

[2020-04-30 23:01:41 #23 type] 
Type domain.Admin is not enhanced.

[2020-04-30 23:01:41 #24 type.registry] 
New type domain.CuentaGlobal

[2020-04-30 23:01:41 #25 type] 
Type domain.CuentaGlobal is not enhanced.

[2020-04-30 23:01:41 #26 type.registry] 
New type java.util.Vector<java.lang.Object>

------------------------------------------------------------------------------------------------------------------------

[2020-04-30 23:24:34 #1 store] 
Database '/Users/ldeniz/git/Bets/resources/bets.temp' is opened by 23887@MacBook-Pro-de-Leroy.local

[2020-04-30 23:24:34 #2 type.registry] 
New type domain.Deporte

[2020-04-30 23:24:34 #3 type] 
Type domain.Deporte is not enhanced.

[2020-04-30 23:24:34 #4 type.registry] 
New type domain.Event

[2020-04-30 23:24:34 #5 type.registry] 
New type java.util.Vector<domain.Event>

[2020-04-30 23:24:34 #6 type] 
Type domain.Event is not enhanced.

[2020-04-30 23:24:34 #7 type.registry] 
New type domain.Question

[2020-04-30 23:24:34 #8 type.registry] 
New type java.util.Vector<domain.Question>

[2020-04-30 23:24:34 #9 type] 
Type domain.Question is not enhanced.

[2020-04-30 23:24:34 #10 type.registry] 
New type domain.Answer

[2020-04-30 23:24:34 #11 type.registry] 
New type java.util.Vector<domain.Answer>

[2020-04-30 23:24:34 #12 type] 
Type domain.Answer is not enhanced.

[2020-04-30 23:24:34 #13 type.registry] 
New type domain.ApuestaGlobal

[2020-04-30 23:24:34 #14 type.registry] 
New type domain.Apuesta

[2020-04-30 23:24:34 #15 type.registry] 
New type java.util.Vector<domain.Apuesta>

[2020-04-30 23:24:34 #16 type] 
Type domain.ApuestaGlobal is not enhanced.

[2020-04-30 23:24:34 #17 type.registry] 
New type domain.Usuario

[2020-04-30 23:24:34 #18 type.registry] 
New type domain.Cliente

[2020-04-30 23:24:34 #19 type] 
Type domain.Apuesta is not enhanced.

[2020-04-30 23:24:34 #20 type] 
Type domain.Usuario is not enhanced.

[2020-04-30 23:24:34 #21 type] 
Type domain.Cliente is not enhanced.

[2020-04-30 23:24:34 #22 type.registry] 
New type domain.Admin

[2020-04-30 23:24:34 #23 type] 
Type domain.Admin is not enhanced.

[2020-04-30 23:24:34 #24 type.registry] 
New type domain.CuentaGlobal

[2020-04-30 23:24:34 #25 type] 
Type domain.CuentaGlobal is not enhanced.

[2020-04-30 23:24:34 #26 type.registry] 
New type java.util.Vector<java.lang.Object>

------------------------------------------------------------------------------------------------------------------------

[2020-04-30 23:30:23 #1 store] 
Database '/Users/ldeniz/git/Bets/resources/bets.temp' is opened by 23938@MacBook-Pro-de-Leroy.local

[2020-04-30 23:30:23 #2 type.registry] 
New type domain.Deporte

[2020-04-30 23:30:23 #3 type] 
Type domain.Deporte is not enhanced.

[2020-04-30 23:30:23 #4 type.registry] 
New type domain.Event

[2020-04-30 23:30:23 #5 type.registry] 
New type java.util.Vector<domain.Event>

[2020-04-30 23:30:23 #6 type] 
Type domain.Event is not enhanced.

[2020-04-30 23:30:23 #7 type.registry] 
New type domain.Question

[2020-04-30 23:30:23 #8 type.registry] 
New type java.util.Vector<domain.Question>

[2020-04-30 23:30:23 #9 type] 
Type domain.Question is not enhanced.

[2020-04-30 23:30:23 #10 type.registry] 
New type domain.Answer

[2020-04-30 23:30:23 #11 type.registry] 
New type java.util.Vector<domain.Answer>

[2020-04-30 23:30:23 #12 type] 
Type domain.Answer is not enhanced.

[2020-04-30 23:30:23 #13 type.registry] 
New type domain.ApuestaGlobal

[2020-04-30 23:30:23 #14 type.registry] 
New type domain.Apuesta

[2020-04-30 23:30:23 #15 type.registry] 
New type java.util.Vector<domain.Apuesta>

[2020-04-30 23:30:23 #16 type] 
Type domain.ApuestaGlobal is not enhanced.

[2020-04-30 23:30:23 #17 type.registry] 
New type domain.Usuario

[2020-04-30 23:30:23 #18 type.registry] 
New type domain.Cliente

[2020-04-30 23:30:23 #19 type] 
Type domain.Apuesta is not enhanced.

[2020-04-30 23:30:23 #20 type] 
Type domain.Usuario is not enhanced.

[2020-04-30 23:30:23 #21 type] 
Type domain.Cliente is not enhanced.

[2020-04-30 23:30:23 #22 type.registry] 
New type domain.Admin

[2020-04-30 23:30:23 #23 type] 
Type domain.Admin is not enhanced.

[2020-04-30 23:30:23 #24 type.registry] 
New type domain.CuentaGlobal

[2020-04-30 23:30:23 #25 type] 
Type domain.CuentaGlobal is not enhanced.

[2020-04-30 23:30:23 #26 type.registry] 
New type java.util.Vector<java.lang.Object>

------------------------------------------------------------------------------------------------------------------------

[2020-04-30 23:32:32 #1 store] 
Database '/Users/ldeniz/git/Bets/resources/bets.temp' is opened by 23954@MacBook-Pro-de-Leroy.local

[2020-04-30 23:32:32 #2 type.registry] 
New type domain.Deporte

[2020-04-30 23:32:32 #3 type] 
Type domain.Deporte is not enhanced.

[2020-04-30 23:32:32 #4 type.registry] 
New type domain.Event

[2020-04-30 23:32:32 #5 type.registry] 
New type java.util.Vector<domain.Event>

[2020-04-30 23:32:32 #6 type] 
Type domain.Event is not enhanced.

[2020-04-30 23:32:32 #7 type.registry] 
New type domain.Question

[2020-04-30 23:32:32 #8 type.registry] 
New type java.util.Vector<domain.Question>

[2020-04-30 23:32:32 #9 type] 
Type domain.Question is not enhanced.

[2020-04-30 23:32:32 #10 type.registry] 
New type domain.Answer

[2020-04-30 23:32:32 #11 type.registry] 
New type java.util.Vector<domain.Answer>

[2020-04-30 23:32:32 #12 type] 
Type domain.Answer is not enhanced.

[2020-04-30 23:32:32 #13 type.registry] 
New type domain.ApuestaGlobal

[2020-04-30 23:32:32 #14 type.registry] 
New type domain.Apuesta

[2020-04-30 23:32:32 #15 type.registry] 
New type java.util.Vector<domain.Apuesta>

[2020-04-30 23:32:32 #16 type] 
Type domain.ApuestaGlobal is not enhanced.

[2020-04-30 23:32:32 #17 type.registry] 
New type domain.Usuario

[2020-04-30 23:32:32 #18 type.registry] 
New type domain.Cliente

[2020-04-30 23:32:32 #19 type] 
Type domain.Apuesta is not enhanced.

[2020-04-30 23:32:32 #20 type] 
Type domain.Usuario is not enhanced.

[2020-04-30 23:32:32 #21 type] 
Type domain.Cliente is not enhanced.

[2020-04-30 23:32:32 #22 type.registry] 
New type domain.Admin

[2020-04-30 23:32:32 #23 type] 
Type domain.Admin is not enhanced.

[2020-04-30 23:32:32 #24 type.registry] 
New type domain.CuentaGlobal

[2020-04-30 23:32:32 #25 type] 
Type domain.CuentaGlobal is not enhanced.

[2020-04-30 23:32:32 #26 type.registry] 
New type java.util.Vector<java.lang.Object>

------------------------------------------------------------------------------------------------------------------------

[2020-04-30 23:33:01 #1 store] 
Database '/Users/ldeniz/git/Bets/resources/bets.temp' is opened by 23960@MacBook-Pro-de-Leroy.local

[2020-04-30 23:33:01 #2 type.registry] 
New type domain.Deporte

[2020-04-30 23:33:01 #3 type] 
Type domain.Deporte is not enhanced.

[2020-04-30 23:33:01 #4 type.registry] 
New type domain.Event

[2020-04-30 23:33:01 #5 type.registry] 
New type java.util.Vector<domain.Event>

[2020-04-30 23:33:01 #6 type] 
Type domain.Event is not enhanced.

[2020-04-30 23:33:01 #7 type.registry] 
New type domain.Question

[2020-04-30 23:33:01 #8 type.registry] 
New type java.util.Vector<domain.Question>

[2020-04-30 23:33:01 #9 type] 
Type domain.Question is not enhanced.

[2020-04-30 23:33:01 #10 type.registry] 
New type domain.Answer

[2020-04-30 23:33:01 #11 type.registry] 
New type java.util.Vector<domain.Answer>

[2020-04-30 23:33:01 #12 type] 
Type domain.Answer is not enhanced.

[2020-04-30 23:33:01 #13 type.registry] 
New type domain.ApuestaGlobal

[2020-04-30 23:33:01 #14 type.registry] 
New type domain.Apuesta

[2020-04-30 23:33:01 #15 type.registry] 
New type java.util.Vector<domain.Apuesta>

[2020-04-30 23:33:01 #16 type] 
Type domain.ApuestaGlobal is not enhanced.

[2020-04-30 23:33:01 #17 type.registry] 
New type domain.Usuario

[2020-04-30 23:33:01 #18 type.registry] 
New type domain.Cliente

[2020-04-30 23:33:01 #19 type] 
Type domain.Apuesta is not enhanced.

[2020-04-30 23:33:01 #20 type] 
Type domain.Usuario is not enhanced.

[2020-04-30 23:33:01 #21 type] 
Type domain.Cliente is not enhanced.

[2020-04-30 23:33:01 #22 type.registry] 
New type domain.Admin

[2020-04-30 23:33:01 #23 type] 
Type domain.Admin is not enhanced.

[2020-04-30 23:33:01 #24 type.registry] 
New type domain.CuentaGlobal

[2020-04-30 23:33:01 #25 type] 
Type domain.CuentaGlobal is not enhanced.

[2020-04-30 23:33:01 #26 type.registry] 
New type java.util.Vector<java.lang.Object>

------------------------------------------------------------------------------------------------------------------------

[2020-04-30 23:33:34 #1 store] 
Database '/Users/ldeniz/git/Bets/resources/bets.temp' is opened by 23965@MacBook-Pro-de-Leroy.local

[2020-04-30 23:33:34 #2 type.registry] 
New type domain.Deporte

[2020-04-30 23:33:34 #3 type] 
Type domain.Deporte is not enhanced.

[2020-04-30 23:33:34 #4 type.registry] 
New type domain.Event

[2020-04-30 23:33:34 #5 type.registry] 
New type java.util.Vector<domain.Event>

[2020-04-30 23:33:34 #6 type] 
Type domain.Event is not enhanced.

[2020-04-30 23:33:34 #7 type.registry] 
New type domain.Question

[2020-04-30 23:33:34 #8 type.registry] 
New type java.util.Vector<domain.Question>

[2020-04-30 23:33:34 #9 type] 
Type domain.Question is not enhanced.

[2020-04-30 23:33:34 #10 type.registry] 
New type domain.Answer

[2020-04-30 23:33:34 #11 type.registry] 
New type java.util.Vector<domain.Answer>

[2020-04-30 23:33:34 #12 type] 
Type domain.Answer is not enhanced.

[2020-04-30 23:33:34 #13 type.registry] 
New type domain.ApuestaGlobal

[2020-04-30 23:33:34 #14 type.registry] 
New type domain.Apuesta

[2020-04-30 23:33:34 #15 type.registry] 
New type java.util.Vector<domain.Apuesta>

[2020-04-30 23:33:34 #16 type] 
Type domain.ApuestaGlobal is not enhanced.

[2020-04-30 23:33:34 #17 type.registry] 
New type domain.Usuario

[2020-04-30 23:33:34 #18 type.registry] 
New type domain.Cliente

[2020-04-30 23:33:34 #19 type] 
Type domain.Apuesta is not enhanced.

[2020-04-30 23:33:34 #20 type] 
Type domain.Usuario is not enhanced.

[2020-04-30 23:33:34 #21 type] 
Type domain.Cliente is not enhanced.

[2020-04-30 23:33:34 #22 type.registry] 
New type domain.Admin

[2020-04-30 23:33:34 #23 type] 
Type domain.Admin is not enhanced.

[2020-04-30 23:33:34 #24 type.registry] 
New type domain.CuentaGlobal

[2020-04-30 23:33:34 #25 type] 
Type domain.CuentaGlobal is not enhanced.

[2020-04-30 23:33:34 #26 type.registry] 
New type java.util.Vector<java.lang.Object>

------------------------------------------------------------------------------------------------------------------------

[2020-04-30 23:34:55 #1 store] 
Database '/Users/ldeniz/git/Bets/resources/bets.temp' is opened by 23976@MacBook-Pro-de-Leroy.local

[2020-04-30 23:34:55 #2 type.registry] 
New type domain.Deporte

[2020-04-30 23:34:55 #3 type] 
Type domain.Deporte is not enhanced.

[2020-04-30 23:34:55 #4 type.registry] 
New type domain.Event

[2020-04-30 23:34:55 #5 type.registry] 
New type java.util.Vector<domain.Event>

[2020-04-30 23:34:55 #6 type] 
Type domain.Event is not enhanced.

[2020-04-30 23:34:55 #7 type.registry] 
New type domain.Question

[2020-04-30 23:34:55 #8 type.registry] 
New type java.util.Vector<domain.Question>

[2020-04-30 23:34:55 #9 type] 
Type domain.Question is not enhanced.

[2020-04-30 23:34:55 #10 type.registry] 
New type domain.Answer

[2020-04-30 23:34:55 #11 type.registry] 
New type java.util.Vector<domain.Answer>

[2020-04-30 23:34:55 #12 type] 
Type domain.Answer is not enhanced.

[2020-04-30 23:34:55 #13 type.registry] 
New type domain.ApuestaGlobal

[2020-04-30 23:34:55 #14 type.registry] 
New type domain.Apuesta

[2020-04-30 23:34:55 #15 type.registry] 
New type java.util.Vector<domain.Apuesta>

[2020-04-30 23:34:55 #16 type] 
Type domain.ApuestaGlobal is not enhanced.

[2020-04-30 23:34:55 #17 type.registry] 
New type domain.Usuario

[2020-04-30 23:34:55 #18 type.registry] 
New type domain.Cliente

[2020-04-30 23:34:55 #19 type] 
Type domain.Apuesta is not enhanced.

[2020-04-30 23:34:55 #20 type] 
Type domain.Usuario is not enhanced.

[2020-04-30 23:34:55 #21 type] 
Type domain.Cliente is not enhanced.

[2020-04-30 23:34:55 #22 type.registry] 
New type domain.Admin

[2020-04-30 23:34:55 #23 type] 
Type domain.Admin is not enhanced.

[2020-04-30 23:34:55 #24 type.registry] 
New type domain.CuentaGlobal

[2020-04-30 23:34:55 #25 type] 
Type domain.CuentaGlobal is not enhanced.

[2020-04-30 23:34:55 #26 type.registry] 
New type java.util.Vector<java.lang.Object>

------------------------------------------------------------------------------------------------------------------------

[2020-04-30 23:36:08 #1 store] 
Database '/Users/ldeniz/git/Bets/resources/bets.temp' is opened by 23986@MacBook-Pro-de-Leroy.local

[2020-04-30 23:36:08 #2 type.registry] 
New type domain.Deporte

[2020-04-30 23:36:08 #3 type] 
Type domain.Deporte is not enhanced.

[2020-04-30 23:36:08 #4 type.registry] 
New type domain.Event

[2020-04-30 23:36:08 #5 type.registry] 
New type java.util.Vector<domain.Event>

[2020-04-30 23:36:08 #6 type] 
Type domain.Event is not enhanced.

[2020-04-30 23:36:08 #7 type.registry] 
New type domain.Question

[2020-04-30 23:36:08 #8 type.registry] 
New type java.util.Vector<domain.Question>

[2020-04-30 23:36:08 #9 type] 
Type domain.Question is not enhanced.

[2020-04-30 23:36:08 #10 type.registry] 
New type domain.Answer

[2020-04-30 23:36:08 #11 type.registry] 
New type java.util.Vector<domain.Answer>

[2020-04-30 23:36:08 #12 type] 
Type domain.Answer is not enhanced.

[2020-04-30 23:36:08 #13 type.registry] 
New type domain.ApuestaGlobal

[2020-04-30 23:36:08 #14 type.registry] 
New type domain.Apuesta

[2020-04-30 23:36:08 #15 type.registry] 
New type java.util.Vector<domain.Apuesta>

[2020-04-30 23:36:08 #16 type] 
Type domain.ApuestaGlobal is not enhanced.

[2020-04-30 23:36:08 #17 type.registry] 
New type domain.Usuario

[2020-04-30 23:36:08 #18 type.registry] 
New type domain.Cliente

[2020-04-30 23:36:08 #19 type] 
Type domain.Apuesta is not enhanced.

[2020-04-30 23:36:08 #20 type] 
Type domain.Usuario is not enhanced.

[2020-04-30 23:36:08 #21 type] 
Type domain.Cliente is not enhanced.

[2020-04-30 23:36:08 #22 type.registry] 
New type domain.Admin

[2020-04-30 23:36:08 #23 type] 
Type domain.Admin is not enhanced.

[2020-04-30 23:36:08 #24 type.registry] 
New type domain.CuentaGlobal

[2020-04-30 23:36:08 #25 type] 
Type domain.CuentaGlobal is not enhanced.

[2020-04-30 23:36:08 #26 type.registry] 
New type java.util.Vector<java.lang.Object>

------------------------------------------------------------------------------------------------------------------------

[2020-04-30 23:36:58 #1 store] 
Database '/Users/ldeniz/git/Bets/resources/bets.temp' is opened by 23994@MacBook-Pro-de-Leroy.local

[2020-04-30 23:36:59 #2 type.registry] 
New type domain.Deporte

[2020-04-30 23:36:59 #3 type] 
Type domain.Deporte is not enhanced.

[2020-04-30 23:36:59 #4 type.registry] 
New type domain.Event

[2020-04-30 23:36:59 #5 type.registry] 
New type java.util.Vector<domain.Event>

[2020-04-30 23:36:59 #6 type] 
Type domain.Event is not enhanced.

[2020-04-30 23:36:59 #7 type.registry] 
New type domain.Question

[2020-04-30 23:36:59 #8 type.registry] 
New type java.util.Vector<domain.Question>

[2020-04-30 23:36:59 #9 type] 
Type domain.Question is not enhanced.

[2020-04-30 23:36:59 #10 type.registry] 
New type domain.Answer

[2020-04-30 23:36:59 #11 type.registry] 
New type java.util.Vector<domain.Answer>

[2020-04-30 23:36:59 #12 type] 
Type domain.Answer is not enhanced.

[2020-04-30 23:36:59 #13 type.registry] 
New type domain.ApuestaGlobal

[2020-04-30 23:36:59 #14 type.registry] 
New type domain.Apuesta

[2020-04-30 23:36:59 #15 type.registry] 
New type java.util.Vector<domain.Apuesta>

[2020-04-30 23:36:59 #16 type] 
Type domain.ApuestaGlobal is not enhanced.

[2020-04-30 23:36:59 #17 type.registry] 
New type domain.Usuario

[2020-04-30 23:36:59 #18 type.registry] 
New type domain.Cliente

[2020-04-30 23:36:59 #19 type] 
Type domain.Apuesta is not enhanced.

[2020-04-30 23:36:59 #20 type] 
Type domain.Usuario is not enhanced.

[2020-04-30 23:36:59 #21 type] 
Type domain.Cliente is not enhanced.

[2020-04-30 23:36:59 #22 type.registry] 
New type domain.Admin

[2020-04-30 23:36:59 #23 type] 
Type domain.Admin is not enhanced.

[2020-04-30 23:36:59 #24 type.registry] 
New type domain.CuentaGlobal

[2020-04-30 23:36:59 #25 type] 
Type domain.CuentaGlobal is not enhanced.

[2020-04-30 23:36:59 #26 type.registry] 
New type java.util.Vector<java.lang.Object>

------------------------------------------------------------------------------------------------------------------------

[2020-04-30 23:37:37 #1 store] 
Database '/Users/ldeniz/git/Bets/resources/bets.temp' is opened by 24008@MacBook-Pro-de-Leroy.local

[2020-04-30 23:37:38 #2 type.registry] 
New type domain.Deporte

[2020-04-30 23:37:38 #3 type] 
Type domain.Deporte is not enhanced.

[2020-04-30 23:37:38 #4 type.registry] 
New type domain.Event

[2020-04-30 23:37:38 #5 type.registry] 
New type java.util.Vector<domain.Event>

[2020-04-30 23:37:38 #6 type] 
Type domain.Event is not enhanced.

[2020-04-30 23:37:38 #7 type.registry] 
New type domain.Question

[2020-04-30 23:37:38 #8 type.registry] 
New type java.util.Vector<domain.Question>

[2020-04-30 23:37:38 #9 type] 
Type domain.Question is not enhanced.

[2020-04-30 23:37:38 #10 type.registry] 
New type domain.Answer

[2020-04-30 23:37:38 #11 type.registry] 
New type java.util.Vector<domain.Answer>

[2020-04-30 23:37:38 #12 type] 
Type domain.Answer is not enhanced.

[2020-04-30 23:37:38 #13 type.registry] 
New type domain.ApuestaGlobal

[2020-04-30 23:37:38 #14 type.registry] 
New type domain.Apuesta

[2020-04-30 23:37:38 #15 type.registry] 
New type java.util.Vector<domain.Apuesta>

[2020-04-30 23:37:38 #16 type] 
Type domain.ApuestaGlobal is not enhanced.

[2020-04-30 23:37:38 #17 type.registry] 
New type domain.Usuario

[2020-04-30 23:37:38 #18 type.registry] 
New type domain.Cliente

[2020-04-30 23:37:38 #19 type] 
Type domain.Apuesta is not enhanced.

[2020-04-30 23:37:38 #20 type] 
Type domain.Usuario is not enhanced.

[2020-04-30 23:37:38 #21 type] 
Type domain.Cliente is not enhanced.

[2020-04-30 23:37:38 #22 type.registry] 
New type domain.Admin

[2020-04-30 23:37:38 #23 type] 
Type domain.Admin is not enhanced.

[2020-04-30 23:37:38 #24 type.registry] 
New type domain.CuentaGlobal

[2020-04-30 23:37:38 #25 type] 
Type domain.CuentaGlobal is not enhanced.

[2020-04-30 23:37:38 #26 type.registry] 
New type java.util.Vector<java.lang.Object>

